…
ggplot2 is the package of the Tidyverse to produce elegant visualizations, based on the Grammar of Graphics. To generate a plot with ggplot2 we need:

A dataset to pick data from. As with the rest of the Tidyverse, ggplot expects tidy data stored into a data frame.

An aestethic mapping of the variables of the dataset. Here you will set the plot axis and how you will convey additional information (e.g., coloring points according to a categorical variable).

One or several layers or geoms.

There are so much things you can do with ggplot, so we’ll explore very basic possibilities here. Let’s use the iris dataset:

library(tibble)
iris_tibble <- tibble(iris)
iris_tibble

## # A tibble: 150 x 5
##    Sepal.Length Sepal.Width Petal.Length Petal.Width Species
##           <dbl>       <dbl>        <dbl>       <dbl> <fct>  
##  1          5.1         3.5          1.4         0.2 setosa 
##  2          4.9         3            1.4         0.2 setosa 
##  3          4.7         3.2          1.3         0.2 setosa 
##  4          4.6         3.1          1.5         0.2 setosa 
##  5          5           3.6          1.4         0.2 setosa 
##  6          5.4         3.9          1.7         0.4 setosa 
##  7          4.6         3.4          1.4         0.3 setosa 
##  8          5           3.4          1.5         0.2 setosa 
##  9          4.4         2.9          1.4         0.2 setosa 
## 10          4.9         3.1          1.5         0.1 setosa 
## # … with 140 more rows
…
