…
<script src="{{< blogdown/postref >}}index_files/header-attrs/header-attrs.js">

One of the most common statistical hypothesis tests, when we are analyzing populations, is the Student’s t-test. We can mainly use this test to evaluate a characteristic’s value in a population based on a sample. It’s important to highlight that the sample needs to follow a normal distribution for carrying out the Student’s t-test (also called normality). Let’s see three examples.

First example

Firstly, we load the data set employees_for_ttest that we can find in the package HRdatsets. This data set contains a sample with 550 observations.

library(tidyverse)

devtools::install_github("vicencfernandez/HRdatasets")
library(HRdatasets)
employees_for_ttest

## # A tibble: 550 x 6
##    employeeID gender salary20 salary21 performance20 performance21
##         <int> <fct>     <dbl>    <dbl>         <dbl>         <dbl>
##  1          1 female    1850.    1867.          58.9          63.0
##  2          2 female    2449.    2481.          73.0          73.8
##  3          3 female    2154.    2179.          91.2          87.9
##  4          4 female    2011.    2032.          55.9          60.7
##  5          5 female    1910.    1929.          69.6          71.2
##  6          6 female    2324.    2353.          72.3          73.3
##  7          7 female    1939.    1958.          79.8          79.1
##  8          8 female    1919.    1939.          67.5          69.6
##  9          9 female    1912.    1931.          96.4          91.8
## 10         10 female    2012.    2034.          68.8          70.6
## # … with 540 more rows
…
