…
Non-parametric methods

Today, we will see the most popular non-parametric method for the attrition analysis: The Kaplan and Meier Estimation. One of the most interesting characteristics of the non-parametric methods is that the sample doesn’t have to satisfy any distribution. However, before starting with an example, we need to introduce some basic concepts.

The Kaplan and Meier Estimation defines a survival function (\(S(t)\)) that depends on time and tells us the probability that one employee will keep working in the company at a specific time. At the beginning of the process, the probability of surviving is one (\(S(t=0)=1\)). When the time tends to infinity, the probability of surviving is zero (\(S(t \rightarrow \infty)=0\)). Finally, we need to take into account the survival function cannot increase with time.

Now, we can start with an example. Firstly, we need to load the data set employees_attrition to find in the package HRdatsets. This data set contains a sample with 1,470 employees.

library(tidyverse)

devtools::install_github("vicencfernandez/HRdatasets")
library(HRdatasets)
employees_attrition 

## # A tibble: 1,470 x 35
##      Age Attrition BusinessTravel   DailyRate Department        DistanceFromHome
##    <int> <chr>     <chr>                <int> <chr>                        <int>
##  1    41 Yes       Travel_Rarely         1102 Sales                            1
##  2    49 No        Travel_Frequent…       279 Research & Devel…                8
##  3    37 Yes       Travel_Rarely         1373 Research & Devel…                2
##  4    33 No        Travel_Frequent…      1392 Research & Devel…                3
##  5    27 No        Travel_Rarely          591 Research & Devel…                2
##  6    32 No        Travel_Frequent…      1005 Research & Devel…                2
##  7    59 No        Travel_Rarely         1324 Research & Devel…                3
##  8    30 No        Travel_Rarely         1358 Research & Devel…               24
##  9    38 No        Travel_Frequent…       216 Research & Devel…               23
## 10    36 No        Travel_Rarely         1299 Research & Devel…               27
## # … with 1,460 more rows, and 29 more variables: Education <int>,
## #   EducationField <chr>, EmployeeCount <int>, EmployeeNumber <int>,
## #   EnvironmentSatisfaction <int>, Gender <chr>, HourlyRate <int>,
## #   JobInvolvement <int>, JobLevel <int>, JobRole <chr>, JobSatisfaction <int>,
## #   MaritalStatus <chr>, MonthlyIncome <int>, MonthlyRate <int>,
## #   NumCompaniesWorked <int>, Over18 <chr>, OverTime <chr>,
## #   PercentSalaryHike <int>, PerformanceRating <int>,
## #   RelationshipSatisfaction <int>, StandardHours <int>,
## #   StockOptionLevel <int>, TotalWorkingYears <int>,
…
